module github.com/clear/russian-roulette

go 1.19

require (
	github.com/PuerkitoBio/goquery v1.8.0
	github.com/charmbracelet/bubbletea v0.23.1
	github.com/charmbracelet/lipgloss v0.6.0
)

require (
	github.com/andybalholm/cascadia v1.3.1 // indirect
	github.com/aymanbagabas/go-osc52 v1.0.3 // indirect
	github.com/containerd/console v1.0.3 // indirect
	github.com/lucasb-eyer/go-colorful v1.2.0 // indirect
	github.com/mattn/go-isatty v0.0.16 // indirect
	github.com/mattn/go-localereader v0.0.1 // indirect
	github.com/mattn/go-runewidth v0.0.14 // indirect
	github.com/muesli/ansi v0.0.0-20211018074035-2e021307bc4b // indirect
	github.com/muesli/cancelreader v0.2.2 // indirect
	github.com/muesli/reflow v0.3.0 // indirect
	github.com/muesli/termenv v0.13.0 // indirect
	github.com/rivo/uniseg v0.2.0 // indirect
	golang.org/x/net v0.0.0-20210916014120-12bc252f5db8 // indirect
	golang.org/x/sys v0.0.0-20220811171246-fbc7d0a398ab // indirect
	golang.org/x/term v0.0.0-20210927222741-03fcf44c2211 // indirect
	golang.org/x/text v0.3.7 // indirect
)
